<?xml version="1.0" encoding="UTF-8" standalone="no"?>
<!-- Created with Inkscape (http://www.inkscape.org/) -->

<svg
   xmlns:dc="http://purl.org/dc/elements/1.1/"
   xmlns:cc="http://creativecommons.org/ns#"
   xmlns:rdf="http://www.w3.org/1999/02/22-rdf-syntax-ns#"
   xmlns:svg="http://www.w3.org/2000/svg"
   xmlns="http://www.w3.org/2000/svg"
   xmlns:xlink="http://www.w3.org/1999/xlink"
   xmlns:sodipodi="http://sodipodi.sourceforge.net/DTD/sodipodi-0.dtd"
   xmlns:inkscape="http://www.inkscape.org/namespaces/inkscape"
   width="199.93385mm"
   height="53.273838mm"
   viewBox="0 0 199.93385 53.273838"
   version="1.1"
   id="svg8"
   inkscape:version="0.92.1 r15371"
   sodipodi:docname="Tkachenko_Sergey_Logo_white.svg">
  <defs
     id="defs2">
    <linearGradient
       id="grad9">
      <stop
         id="stop2022"
         stop-opacity="1.0000"
         stop-color="#003655"
         offset="0%" />
      <stop
         id="stop2024"
         stop-opacity="1.0000"
         stop-color="#ffffff"
         offset="100%" />
    </linearGradient>
    <linearGradient
       gradientUnits="userSpaceOnUse"
       gradientTransform="matrix(0.25730339,0,0,0.27206924,-5.5146175,37.055088)"
       y2="406.90952"
       x2="126.38122"
       y1="323.50931"
       x1="126.38122"
       id="grad10"
       xlink:href="#grad9" />
    <linearGradient
       gradientUnits="userSpaceOnUse"
       gradientTransform="scale(0.85719261,1.166599)"
       y2="339.38193"
       x2="448.09778"
       y1="311.01501"
       x1="448.09778"
       id="grad12"
       xlink:href="#grad9" />
  </defs>
  <sodipodi:namedview
     id="base"
     pagecolor="#ffffff"
     bordercolor="#666666"
     borderopacity="1.0"
     inkscape:pageopacity="0.0"
     inkscape:pageshadow="2"
     inkscape:zoom="1.3508427"
     inkscape:cx="345.48241"
     inkscape:cy="35.985353"
     inkscape:document-units="mm"
     inkscape:current-layer="layer1"
     showgrid="false"
     showguides="false"
     inkscape:window-width="1920"
     inkscape:window-height="1061"
     inkscape:window-x="1362"
     inkscape:window-y="-4"
     inkscape:window-maximized="1"
     fit-margin-top="0"
     fit-margin-left="0"
     fit-margin-right="0"
     fit-margin-bottom="0" />
  <metadata
     id="metadata5">
    <rdf:RDF>
      <cc:Work
         rdf:about="">
        <dc:format>image/svg+xml</dc:format>
        <dc:type
           rdf:resource="http://purl.org/dc/dcmitype/StillImage" />
        <dc:title />
      </cc:Work>
    </rdf:RDF>
  </metadata>
  <g
     inkscape:label="Layer 1"
     inkscape:groupmode="layer"
     id="layer1"
     transform="translate(-3.4998731,-3.0753838)">
    <text
       xml:space="preserve"
       style="font-style:normal;font-weight:normal;font-size:5.14286137px;line-height:1.25;font-family:sans-serif;letter-spacing:1.52157748px;word-spacing:0px;fill:#ffffff;fill-opacity:1;stroke:none;stroke-width:0.42857173;"
       x="91.166367"
       y="42.47694"
       id="text6683"
       transform="scale(0.79461707,1.2584678)"><tspan
         sodipodi:role="line"
         id="tspan6681"
         x="91.166367"
         y="42.47694"
         style="font-style:normal;font-variant:normal;font-weight:normal;font-stretch:normal;font-size:5.14286137px;font-family:sans-serif;-inkscape-font-specification:'sans-serif, Normal';font-variant-ligatures:normal;font-variant-caps:normal;font-variant-numeric:normal;font-feature-settings:normal;text-align:start;letter-spacing:1.52157748px;writing-mode:lr-tb;text-anchor:start;fill:#ffffff;fill-opacity:1;stroke-width:0.42857173;">АВТОМАТИЗАЦИЯ ОТ ПРОФЕССИОНАЛОВ</tspan></text>
    <g
       id="Layer1004"
       transform="matrix(0.62119765,0,0,0.62119765,-72.847773,-105.68826)"
       style="fill:#ffffff;fill-opacity:1">
      <defs
         id="defs2028">
        <linearGradient
           id="linearGradient2125">
          <stop
             offset="0%"
             stop-color="#003655"
             stop-opacity="1.0000"
             id="stop2121" />
          <stop
             offset="100%"
             stop-color="#ffffff"
             stop-opacity="1.0000"
             id="stop2123" />
        </linearGradient>
        <linearGradient
           xlink:href="#grad9"
           id="linearGradient2127"
           x1="0"
           y1="0"
           x2="0"
           y2="1"
           gradientTransform="rotate(129,0.5,0.5)"
           gradientUnits="objectBoundingBox" />
      </defs>
      <path
         d="m 223.5243,237.9634 h 6.283 v -26.5221 h 5.7552 V 205.638 H 217.817 v 5.8033 h 5.7073 z m 14.2035,-32.3254 v 32.3254 h 6.139 v -13.7166 h 0.4797 c 2.59,0 3.4531,2.4458 4.2205,6.2348 0.5275,2.5419 1.0071,5.1798 1.7744,7.4818 h 6.283 c -0.9592,-2.9735 -1.4867,-6.0429 -2.2062,-9.1604 -0.9113,-3.9328 -2.0143,-6.9543 -5.3237,-8.2012 l 7.4338,-14.9638 h -6.9063 l -5.2755,14.0524 h -0.4797 V 205.638 Z m 32.2847,24.9394 1.3909,7.386 h 6.0911 l -6.283,-32.3254 h -7.5296 l -7.0022,32.3254 h 6.0908 l 1.4389,-7.386 z m -5.1795,-4.892 1.1988,-6.7144 c 0.3359,-1.8703 0.8155,-5.2277 1.1511,-7.386 h 0.144 c 0.2877,2.1583 0.7195,5.3717 1.0551,7.3381 l 1.055,6.7623 z m 14.8269,-20.0474 v 11.4627 c 0,5.3235 2.0143,9.0643 7.5779,9.0643 1.6786,0 3.1175,-0.4314 4.6043,-1.1029 h 0.1437 v 12.9013 h 6.1869 V 205.638 h -6.1869 v 14.58 c -0.6233,0.3838 -1.6787,0.6715 -2.5897,0.6715 -2.5421,0 -3.5493,-1.8706 -3.5493,-4.5082 V 205.638 Z m 36.6012,12.9013 h -7.3859 v -7.4339 h 7.7695 v -5.4674 h -14.0525 v 32.3254 h 14.6279 v -5.4675 h -8.3449 v -8.7287 h 7.3859 z m 4.0836,-12.9013 v 32.3254 h 6.283 v -13.5249 h 6.5704 v 13.5249 h 6.283 V 205.638 h -6.283 v 12.9495 h -6.5704 V 205.638 Z m 23.5559,0 v 32.3254 h 6.139 v -13.7166 h 0.4796 c 2.5901,0 3.4532,2.4458 4.2205,6.2348 0.5276,2.5419 1.0072,5.1798 1.7745,7.4818 h 6.283 c -0.9592,-2.9735 -1.4867,-6.0429 -2.2062,-9.1604 -0.9113,-3.9328 -2.0143,-6.9543 -5.3237,-8.2012 l 7.4338,-14.9638 h -6.9063 l -5.2756,14.0524 h -0.4796 V 205.638 Z m 29.2153,-0.3836 c -7.1461,0 -10.6472,7.6258 -10.6472,16.4503 0,8.8727 2.8774,16.6425 10.2155,16.6425 6.139,0 10.4553,-4.9399 10.4553,-17.1221 0,-7.386 -2.2059,-15.9707 -10.0236,-15.9707 z m -0.2398,5.4675 c 2.8295,0 3.693,5.1318 3.693,10.7909 0,6.5707 -1.0072,11.3667 -3.6451,11.3667 -2.5418,0 -3.9328,-3.7409 -3.9328,-11.0787 0,-6.9545 1.391,-11.0789 3.8849,-11.0789 z m 37.3756,27.2415 h 6.283 v -10.743 l 1.4386,-2.6379 4.7004,13.3809 h 6.8582 l -7.3378,-18.273 7.242,-14.0524 h -6.9064 l -4.3166,10.3594 c -0.5275,1.391 -1.055,2.8299 -1.5825,4.1726 h -0.0959 v -14.532 h -6.283 z m 26.9805,-24.552 c -5.364,0 -7.992,5.724 -7.992,12.348 0,6.66 2.16,12.492 7.668,12.492 4.608,0 7.848,-3.708 7.848,-12.852 0,-5.544 -1.656,-11.988 -7.524,-11.988 z m -0.18,4.104 c 2.124,0 2.772,3.852 2.772,8.1 0,4.932 -0.756,8.532 -2.736,8.532 -1.908,0 -2.952,-2.808 -2.952,-8.316 0,-5.22 1.044,-8.316 2.916,-8.316 z"
         style="fill:#ffffff;fill-opacity:1"
         id="path2030"
         inkscape:connector-curvature="0" />
      <defs
         id="defs2038">
        <linearGradient
           id="linearGradient2107">
          <stop
             offset="0%"
             stop-color="#003655"
             stop-opacity="1.0000"
             id="stop2032" />
          <stop
             offset="100%"
             stop-color="#ffffff"
             stop-opacity="1.0000"
             id="stop2034" />
        </linearGradient>
        <linearGradient
           xlink:href="#grad9"
           id="linearGradient2134"
           x1="0"
           y1="0"
           x2="0"
           y2="1"
           gradientTransform="rotate(95,0.5,0.5)"
           gradientUnits="objectBoundingBox" />
      </defs>
      <path
         d="m 408.422,237.9634 c -1.8706,-2.3502 -3.5011,-4.4603 -4.5561,-5.8031 2.158,-2.59 3.6447,-7.0024 4.0765,-11.4148 h -5.3235 c -0.0961,2.446 -0.3359,5.4674 -1.4389,7.5778 -1.2469,-1.5825 -3.3573,-4.748 -4.748,-6.8584 v -0.1919 c 4.6519,-3.2133 5.5633,-5.851 5.5633,-8.7766 0,-4.3645 -2.9736,-7.242 -7.0983,-7.242 -5.0357,0 -8.1051,3.6448 -8.1051,8.0572 0,2.2541 0.7192,4.7001 2.3979,7.0024 v 0.0959 c -3.2134,2.0622 -5.0837,4.9878 -5.0837,8.8727 0,5.0357 3.3092,9.0646 8.9206,9.0646 2.7338,0 5.2756,-0.9592 7.0022,-2.4942 0.6236,0.9113 1.055,1.4389 1.5347,2.1104 z m -14.2444,-4.2684 c -2.6376,0 -4.3163,-2.3981 -4.3163,-5.1798 0,-2.0143 0.9113,-3.5492 1.8224,-4.4603 1.8706,2.6859 4.1726,5.995 5.8513,8.1054 -0.8153,0.959 -1.8706,1.5347 -3.3574,1.5347 z m 0.4796,-24.268 c 1.6787,0 2.0625,1.8703 2.0625,3.3571 0,1.8706 -0.7673,3.5011 -2.7819,5.0839 -1.0551,-1.5828 -1.5826,-2.9735 -1.5826,-4.7962 0,-2.0143 0.8153,-3.6448 2.302,-3.6448 z"
         style="fill:#ffffff;fill-opacity:1"
         id="path2040"
         inkscape:connector-curvature="0" />
    </g>
    <path
       d="m 67.341811,48.927533 c 0.975032,0 1.76532,0.790281 1.76532,1.765242 0,0.974844 -0.790288,1.765078 -1.76532,1.765078 -0.974783,0 -1.765071,-0.790234 -1.765071,-1.765078 0,-0.974961 0.790288,-1.765242 1.765071,-1.765242 z"
       style="fill:#ffffff;fill-rule:evenodd;stroke-width:0.62119764;fill-opacity:1"
       id="path2045"
       inkscape:connector-curvature="0" />
    <path
       d="m 201.01467,48.927533 c 0.97477,0 1.76507,0.790281 1.76507,1.765242 0,0.974844 -0.7903,1.765078 -1.76507,1.765078 -0.97504,0 -1.76532,-0.790234 -1.76532,-1.765078 0,-0.974961 0.79028,-1.765242 1.76532,-1.765242 z"
       style="fill:#ffffff;fill-rule:evenodd;stroke-width:0.62119764;fill-opacity:1"
       id="path2047"
       inkscape:connector-curvature="0" />
    <path
       d="m 37.669871,14.791035 c 8.718013,2.921555 11.387981,28.120573 2.803341,17.402793 -1.025473,-4.619725 -6.773042,-4.265206 -7.308203,0.524848 2.731282,4.729178 9.590422,13.707358 -0.220086,16.922857 0.446455,-1.142386 2.786071,-3.634001 1.111136,-5.391378 -2.481561,-2.602756 -11.927739,-2.774143 -8.448846,4.387961 -5.726822,0.582239 -3.608538,-11.493468 -0.569763,-15.846077 -4.049402,-5.463742 -7.697011,-1.696241 -7.632159,0.482548 -8.0156849,1.56635 -4.821427,2.082129 -6.760059,2.897701 -8.4631348,3.562817 -1.3536527,-15.275499 0.635671,-16.440555 0.429994,-0.251648 5.743842,-1.657978 6.378954,-1.753891 l 0.0056,-1.514231 C 12.530484,16.207988 9.3144214,15.957087 7.5289127,9.9230817 4.472308,12.969063 6.0317015,16.231903 8.9225069,19.067112 -2.6703466,40.110122 6.0638786,52.366217 18.806072,56.349223 c -3.663017,-2.632767 -6.620227,-5.361677 -8.357407,-8.256955 6.386595,3.652149 12.773501,6.841869 19.160158,7.910133 6.034811,-1.74383 12.06987,-4.817684 18.105179,-8.437339 -1.816632,2.939135 -4.650535,5.682391 -7.958786,8.30795 12.386931,-4.51263 20.32391,-16.933785 7.83231,-36.785152 -0.502549,-0.798611 -1.256995,-1.115918 -0.999198,-1.299235 5.512075,-3.916837 5.487599,-12.3281646 -6.56817,-11.5442136 -1.482861,0.096472 -0.833336,-2.3465118 -2.813405,-2.1804659 -0.02498,-0.5631139 0.460805,-0.7692912 0.963044,-0.9808709 -1.011933,-0.083677 -5.811553,0.5200662 -6.356095,1.5862292 -1.553242,-0.4631641 0.08236,-1.4905644 0.233891,-1.5766618 -4.05928,-0.01667 -9.951091,2.9088814 -13.052854,6.0746909 -1.216553,5.2644021 19.421682,2.0329331 20.686875,1.1216961 6.464246,-4.6553173 13.376001,-0.04703 5.011139,5.087176 -2.581138,1.584611 -6.191289,-1.85732 -7.022826,-0.58517 z"
       style="fill:#ffffff;fill-opacity:1;stroke-width:0.62119764"
       id="path2057"
       inkscape:connector-curvature="0" />
  </g>
</svg>
